{
    "urls": {
        "main": "https://greencertificatereader.com",
        "author": "mailto:greencertificatereader@husarik.sk",
        "source": "https://bitbucket.org/ph55/covid-certificate-qrcode-reader/"
    },
    "analytics": {
        "id": "UA-2276285-14"
    }
}
